Assignment 03 - Web Scraping and Text Mining
…
Text Mining

A new dataset has been added to the data science data repository https://github.com/USCbiostats/data-science-data/tree/master/03_pubmed. The dataset contains 3241 abstracts from articles across 5 search terms. Your job is to analyse these abstracts to find interesting insights.

## Parsed with column specification:
## cols(
##   abstract = col_character(),
##   term = col_character()
## )

Tokenize the abstracts and count the number of each token. Do you see anything interesting? Does removing stop words change what tokens appear as the most frequent? What are the 5 most common tokens for each search term after removing stopwords?

## # A tibble: 20,567 x 2
##    word      n
##    <chr> <int>
##  1 the   28126
##  2 of    24760
##  3 and   19993
##  4 in    14653
##  5 to    10920
##  6 a      8245
##  7 with   8038
##  8 covid  7275
##  9 19     7080
## 10 is     5649
## #  with 20,557 more rows
…
